[
    {
        "package": {
            "key": "werkzeug",
            "package_name": "Werkzeug",
            "installed_version": "0.14.1"
        },
        "dependencies": []
    },
    {
        "package": {
            "key": "termcolor",
            "package_name": "termcolor",
            "installed_version": "1.1.0"
        },
        "dependencies": []
    },
    {
        "package": {
            "key": "tensorflow",
            "package_name": "tensorflow",
            "installed_version": "1.6.0"
        },
        "dependencies": [
            {
                "key": "termcolor",
                "package_name": "termcolor",
                "installed_version": "1.1.0",
                "required_version": ">=1.1.0"
            },
            {
                "key": "protobuf",
                "package_name": "protobuf",
                "installed_version": "3.5.2.post1",
                "required_version": ">=3.4.0"
            },
            {
                "key": "tensorboard",
                "package_name": "tensorboard",
                "installed_version": "1.6.0",
                "required_version": ">=1.6.0,<1.7.0"
            },
            {
                "key": "six",
                "package_name": "six",
                "installed_version": "1.11.0",
                "required_version": ">=1.10.0"
            },
            {
                "key": "astor",
                "package_name": "astor",
                "installed_version": "0.6.2",
                "required_version": ">=0.6.0"
            },
            {
                "key": "grpcio",
                "package_name": "grpcio",
                "installed_version": "1.12.0",
                "required_version": ">=1.8.6"
            },
            {
                "key": "absl-py",
                "package_name": "absl-py",
                "installed_version": "0.2.2",
                "required_version": ">=0.1.6"
            },
            {
                "key": "wheel",
                "package_name": "wheel",
                "installed_version": "0.31.1",
                "required_version": ">=0.26"
            },
            {
                "key": "gast",
                "package_name": "gast",
                "installed_version": "0.2.0",
                "required_version": ">=0.2.0"
            },
            {
                "key": "numpy",
                "package_name": "numpy",
                "installed_version": "1.14.3",
                "required_version": ">=1.13.3"
            }
        ]
    },
    {
        "package": {
            "key": "tensorboard",
            "package_name": "tensorboard",
            "installed_version": "1.6.0"
        },
        "dependencies": [
            {
                "key": "protobuf",
                "package_name": "protobuf",
                "installed_version": "3.5.2.post1",
                "required_version": ">=3.4.0"
            },
            {
                "key": "markdown",
                "package_name": "markdown",
                "installed_version": "2.6.11",
                "required_version": ">=2.6.8"
            },
            {
                "key": "six",
                "package_name": "six",
                "installed_version": "1.11.0",
                "required_version": ">=1.10.0"
            },
            {
                "key": "html5lib",
                "package_name": "html5lib",
                "installed_version": "0.9999999",
                "required_version": "==0.9999999"
            },
            {
                "key": "werkzeug",
                "package_name": "werkzeug",
                "installed_version": "0.14.1",
                "required_version": ">=0.11.10"
            },
            {
                "key": "wheel",
                "package_name": "wheel",
                "installed_version": "0.31.1",
                "required_version": ">=0.26"
            },
            {
                "key": "numpy",
                "package_name": "numpy",
                "installed_version": "1.14.3",
                "required_version": ">=1.12.0"
            },
            {
                "key": "bleach",
                "package_name": "bleach",
                "installed_version": "1.5.0",
                "required_version": "==1.5.0"
            }
        ]
    },
    {
        "package": {
            "key": "six",
            "package_name": "six",
            "installed_version": "1.11.0"
        },
        "dependencies": []
    },
    {
        "package": {
            "key": "protobuf",
            "package_name": "protobuf",
            "installed_version": "3.5.2.post1"
        },
        "dependencies": [
            {
                "key": "setuptools",
                "package_name": "setuptools",
                "installed_version": "39.2.0",
                "required_version": null
            },
            {
                "key": "six",
                "package_name": "six",
                "installed_version": "1.11.0",
                "required_version": ">=1.9"
            }
        ]
    },
    {
        "package": {
            "key": "numpy",
            "package_name": "numpy",
            "installed_version": "1.14.3"
        },
        "dependencies": []
    },
    {
        "package": {
            "key": "markdown",
            "package_name": "Markdown",
            "installed_version": "2.6.11"
        },
        "dependencies": []
    },
    {
        "package": {
            "key": "html5lib",
            "package_name": "html5lib",
            "installed_version": "0.9999999"
        },
        "dependencies": [
            {
                "key": "six",
                "package_name": "six",
                "installed_version": "1.11.0",
                "required_version": null
            }
        ]
    },
    {
        "package": {
            "key": "grpcio",
            "package_name": "grpcio",
            "installed_version": "1.12.0"
        },
        "dependencies": [
            {
                "key": "six",
                "package_name": "six",
                "installed_version": "1.11.0",
                "required_version": ">=1.5.2"
            }
        ]
    },
    {
        "package": {
            "key": "gast",
            "package_name": "gast",
            "installed_version": "0.2.0"
        },
        "dependencies": []
    },
    {
        "package": {
            "key": "bleach",
            "package_name": "bleach",
            "installed_version": "1.5.0"
        },
        "dependencies": [
            {
                "key": "html5lib",
                "package_name": "html5lib",
                "installed_version": "0.9999999",
                "required_version": "!=0.99999,<0.99999999,!=0.9999,>=0.999"
            },
            {
                "key": "six",
                "package_name": "six",
                "installed_version": "1.11.0",
                "required_version": null
            }
        ]
    },
    {
        "package": {
            "key": "astor",
            "package_name": "astor",
            "installed_version": "0.6.2"
        },
        "dependencies": []
    },
    {
        "package": {
            "key": "absl-py",
            "package_name": "absl-py",
            "installed_version": "0.2.2"
        },
        "dependencies": [
            {
                "key": "six",
                "package_name": "six",
                "installed_version": "1.11.0",
                "required_version": null
            }
        ]
    }
]
